…
#levels(asv_w_id$taxon)
```

make a table with taxons and total read counts

``` r
asv_w_id %>%
  group_by(taxon) %>%
  summarise(total_reads = sum(reads)) %>%
  arrange(desc(total_reads))
```

    ## # A tibble: 66 × 2
    ##    taxon                total_reads
    ##    <fct>                      <dbl>
    ##  1 Gadus                   3596208.
    ##  2 Clupea pallasii         2393627.
    ##  3 Oncorhynchus            2121132.
    ##  4 Ammodytes personatus    1143246.
    ##  5 Hexagrammos             1059587.
    ##  6 Pholis laeta             712811.
    ##  7 Anoplarchus              509508.
    ##  8 Pleuronectidae           499097 
    ##  9 Cottidae                 406250.
    ## 10 Gadidae                  322412.
    ## # ℹ 56 more rows
…
