…
outliers <- all_reads %>% 
  filter(prob < low_dist_probability_cutoff  | ReadsPerSample < minimum_read_cutoff) # changed to 0.05 to save the two samples
outlierIDs <- outliers$Sample_ID
```

which samples are removed because of the 5%/1000 reads threshold??

``` r
samples_removed <- asv_table_filter1 %>%
  filter(Sample_ID %in% outlierIDs) %>%
  pivot_wider(names_from = "ASV", values_from = "reads")
samples_removed
```

    ## # A tibble: 66 × 1,861
    ## # Groups:   Sample_ID [66]
    ##    Sample_ID sample_type    ASV1  ASV2  ASV3  ASV4  ASV5  ASV6  ASV7  ASV8  ASV9
    ##    <chr>     <chr>         <dbl> <dbl> <dbl> <dbl> <dbl> <dbl> <dbl> <dbl> <dbl>
    ##  1 e00390-A  sample         68.3 26.3    0     0    44.3     0     0   0     0  
    ##  2 e00395-A  extraction_…  143.  39.4    0   132.    0       0     0   0     0  
    ##  3 NC1-20-A  PCR_blank      78.0  0      0     0     0       0     0   0     0  
    ##  4 e00435-A  sample        313.  21.4    0     0    48.5     0     0  63.3   0  
    ##  5 e00490-A  extraction_…   51.7  3.75   0     0    25.4     0     0   0     0  
    ##  6 NC2-20-A  PCR_blank      75.4 12.8   16.2  15.2   0       0     0   0    18.8
    ##  7 e00395-B  extraction_…  119.  45.2    0    94.5  34.1     0     0   0     0  
    ##  8 e00417-B  sample       2077.   9.94 267.    0     0       0     0   0     0  
    ##  9 NC1-20-B  PCR_blank       0    0      0     0     0       0     0   0     0  
    ## 10 e00490-B  extraction_…   52.2 10.7    0     0     0       0     0   0     0  
    ## # ℹ 56 more rows
    ## # ℹ 1,850 more variables: ASV10 <dbl>, ASV11 <dbl>, ASV12 <dbl>, ASV13 <dbl>,
    ## #   ASV14 <dbl>, ASV15 <dbl>, ASV16 <dbl>, ASV17 <dbl>, ASV18 <dbl>,
    ## #   ASV19 <dbl>, ASV20 <dbl>, ASV21 <dbl>, ASV22 <dbl>, ASV23 <dbl>,
    ## #   ASV24 <dbl>, ASV25 <dbl>, ASV26 <dbl>, ASV27 <dbl>, ASV28 <dbl>,
    ## #   ASV29 <dbl>, ASV30 <dbl>, ASV31 <dbl>, ASV32 <dbl>, ASV33 <dbl>,
    ## #   ASV34 <dbl>, ASV35 <dbl>, ASV36 <dbl>, ASV37 <dbl>, ASV38 <dbl>, …
…
outliers <- all_reads %>% 
  filter(prob < low_dist_probability_cutoff  | ReadsPerSample < minimum_read_cutoff) # changed to 0.05 to save the two samples
outlierIDs <- outliers$Sample_ID
```

which samples are removed because of the 5%/1000 reads threshold??

``` r
samples_removed <- asv_table_filter1 %>%
  filter(Sample_ID %in% outlierIDs) %>%
  pivot_wider(names_from = "ASV", values_from = "reads")
samples_removed
```

    ## # A tibble: 56 × 1,861
    ## # Groups:   Sample_ID [56]
    ##    Sample_ID sample_type   ASV1   ASV2  ASV3  ASV4  ASV5  ASV6  ASV7  ASV8  ASV9
    ##    <chr>     <chr>        <dbl>  <dbl> <dbl> <dbl> <dbl> <dbl> <dbl> <dbl> <dbl>
    ##  1 e00390-A  sample        68.3  26.3    0     0    44.3     0     0   0     0  
    ##  2 e00395-A  extraction_… 143.   39.4    0   132.    0       0     0   0     0  
    ##  3 NC1-20-A  PCR_blank     78.0   0      0     0     0       0     0   0     0  
    ##  4 e00435-A  sample       313.   21.4    0     0    48.5     0     0  63.3   0  
    ##  5 e00490-A  extraction_…  51.7   3.75   0     0    25.4     0     0   0     0  
    ##  6 NC2-20-A  PCR_blank     75.4  12.8   16.2  15.2   0       0     0   0    18.8
    ##  7 e00395-B  extraction_… 119.   45.2    0    94.5  34.1     0     0   0     0  
    ##  8 NC1-20-B  PCR_blank      0     0      0     0     0       0     0   0     0  
    ##  9 e00490-B  extraction_…  52.2  10.7    0     0     0       0     0   0     0  
    ## 10 NC2-20-B  PCR_blank      0   109.     0     0     0       0     0   0     0  
    ## # ℹ 46 more rows
    ## # ℹ 1,850 more variables: ASV10 <dbl>, ASV11 <dbl>, ASV12 <dbl>, ASV13 <dbl>,
    ## #   ASV14 <dbl>, ASV15 <dbl>, ASV16 <dbl>, ASV17 <dbl>, ASV18 <dbl>,
    ## #   ASV19 <dbl>, ASV20 <dbl>, ASV21 <dbl>, ASV22 <dbl>, ASV23 <dbl>,
    ## #   ASV24 <dbl>, ASV25 <dbl>, ASV26 <dbl>, ASV27 <dbl>, ASV28 <dbl>,
    ## #   ASV29 <dbl>, ASV30 <dbl>, ASV31 <dbl>, ASV32 <dbl>, ASV33 <dbl>,
    ## #   ASV34 <dbl>, ASV35 <dbl>, ASV36 <dbl>, ASV37 <dbl>, ASV38 <dbl>, …
…
any ASVs max prop \> in FIELD blanks than samples?

``` r
tempC %>%
  filter(max_prop_field_blank > max_prop_sample)
```

    ## # A tibble: 21 × 13
    ## # Groups:   ASV [21]
    ##    ASV     TotalReadsPerASV_extr…¹ TotalReadsPerASV_fie…² TotalReadsPerASV_PCR…³
    ##    <chr>                     <dbl>                  <dbl>                  <dbl>
    ##  1 ASV1                          0                 32996.                   27.5
    ##  2 ASV1112                       0                   152                     0  
    ##  3 ASV126                        0                  1725                     0  
    ##  4 ASV1266                       0                   119                     0  
    ##  5 ASV1357                       0                   103                     0  
    ##  6 ASV146                        0                  1036                     0  
    ##  7 ASV1659                       0                    38                     0  
    ##  8 ASV1685                       0                    29                     0  
    ##  9 ASV1722                       0                    19                     0  
    ## 10 ASV18                         0                  3068                     0  
    ## # ℹ 11 more rows
    ## # ℹ abbreviated names: ¹​TotalReadsPerASV_extraction_blank,
    ## #   ²​TotalReadsPerASV_field_blank, ³​TotalReadsPerASV_PCR_blank
    ## # ℹ 9 more variables: TotalReadsPerASV_sample <dbl>,
    ## #   max_prop_extraction_blank <dbl>, max_prop_field_blank <dbl>,
    ## #   max_prop_PCR_blank <dbl>, max_prop_sample <dbl>,
    ## #   mean_prop_extraction_blank <dbl>, mean_prop_field_blank <dbl>, …

what about the mean prop?

``` r
tempC %>%
  filter(mean_prop_field_blank > mean_prop_sample)
```

    ## # A tibble: 23 × 13
    ## # Groups:   ASV [23]
    ##    ASV     TotalReadsPerASV_extr…¹ TotalReadsPerASV_fie…² TotalReadsPerASV_PCR…³
    ##    <chr>                     <dbl>                  <dbl>                  <dbl>
    ##  1 ASV1                          0                32996.                    27.5
    ##  2 ASV109                        0                  246                      0  
    ##  3 ASV1112                       0                  152                      0  
    ##  4 ASV126                        0                 1725                      0  
    ##  5 ASV1266                       0                  119                      0  
    ##  6 ASV1357                       0                  103                      0  
    ##  7 ASV146                        0                 1036                      0  
    ##  8 ASV1659                       0                   38                      0  
    ##  9 ASV166                        0                   63.3                    0  
    ## 10 ASV1685                       0                   29                      0  
    ## # ℹ 13 more rows
    ## # ℹ abbreviated names: ¹​TotalReadsPerASV_extraction_blank,
    ## #   ²​TotalReadsPerASV_field_blank, ³​TotalReadsPerASV_PCR_blank
    ## # ℹ 9 more variables: TotalReadsPerASV_sample <dbl>,
    ## #   max_prop_extraction_blank <dbl>, max_prop_field_blank <dbl>,
    ## #   max_prop_PCR_blank <dbl>, max_prop_sample <dbl>,
    ## #   mean_prop_extraction_blank <dbl>, mean_prop_field_blank <dbl>, …
…
