…
find out what ASVs didn’t get a taxon id and see if that was a big
problem…

``` r
asv_w_id %>%
  filter(is.na(taxon)) %>%
  group_by(ASV) %>%
  summarize(total_reads = sum(reads)) %>%
  arrange(desc(total_reads))
```

    ## # A tibble: 39 × 2
    ##    ASV    total_reads
    ##    <chr>        <dbl>
    ##  1 ASV23       129759
    ##  2 ASV61        39786
    ##  3 ASV65        32546
    ##  4 ASV77        24294
    ##  5 ASV101       11004
    ##  6 ASV121        7255
    ##  7 ASV113        7070
    ##  8 ASV105        7001
    ##  9 ASV119        6664
    ## 10 ASV103        6642
    ## # ℹ 29 more rows
…
make a table with taxons and total read counts

``` r
join %>%
  group_by(taxon) %>%
  summarise(total_reads = sum(reads)) %>%
  arrange(desc(total_reads))
```

    ## # A tibble: 62 × 2
    ##    taxon                total_reads
    ##    <fct>                      <dbl>
    ##  1 Gadus                   3726814.
    ##  2 Clupea pallasii         2451229.
    ##  3 Oncorhynchus            2183027.
    ##  4 Ammodytes personatus    1196527.
    ##  5 Hexagrammos             1091239.
    ##  6 Pholis laeta             734320.
    ##  7 Anoplarchus              521445.
    ##  8 Pleuronectidae           518780 
    ##  9 Cottidae                 398865.
    ## 10 Gadidae                  312918.
    ## # ℹ 52 more rows
…
