…
    ##   SamplingSites
    ## 1            84

``` r
unique_replicates_starting <- metadata %>%
  group_by(location1) %>%
  summarise(n_biologial_reps = n_distinct(biological_replicate),
            n_pcr_reps_per_biorep = n_distinct(pcr_replicate),
            n_pcr_reps_total = n_biologial_reps*n_pcr_reps_per_biorep)

unique_replicates_starting
```

    ## # A tibble: 84 × 4
    ##    location1 n_biologial_reps n_pcr_reps_per_biorep n_pcr_reps_total
    ##        <int>            <int>                 <int>            <int>
    ##  1         1                3                     3                9
    ##  2         2                3                     3                9
    ##  3         3                3                     3                9
    ##  4         4                3                     3                9
    ##  5         7                3                     3                9
    ##  6         8                3                     3                9
    ##  7         9                3                     3                9
    ##  8        10                3                     3                9
    ##  9        13                3                     3                9
    ## 10        23                3                     3                9
    ## # ℹ 74 more rows
…
are there any samples that have made it to this point that don’t
actually have any reads?

``` r
asv_table_filter4B %>%
  group_by(Sample_ID) %>%
  summarise(total_reads = sum(reads)) %>%
  arrange(total_reads)
```

    ## # A tibble: 840 × 2
    ##    Sample_ID  total_reads
    ##    <chr>            <dbl>
    ##  1 e00390-C            0 
    ##  2 e00582-B           96 
    ##  3 e00558-A         1668.
    ##  4 e00544-A         2010.
    ##  5 e00547-A         2153.
    ##  6 e00542-B         2215.
    ##  7 e00599-B         2237.
    ##  8 e02076-2-A       2248.
    ##  9 e00542-C         2491.
    ## 10 e00542-A         2563.
    ## # ℹ 830 more rows
…
